
** Test 1: Generating text before training...No error thrown. 
** Test 2: Generating text after training on an empty file...No error thrown. 
Generator produced: I love love. I I I hate dogs. I I hate dogs. I I I I I I hate dogs. I love love cats. I I I I I I I I like books. I I I I I I I love socks. I I I I I love cats. I I I I I I I I I love love love cats. I am a text generator. I I I love love. I I I I I I I I I love cats. I I I love cats. I I I I I I love socks. I I I I I I I like books. I I I I I I I I I I I I I I love love cats. I love cats. I I I I hate dogs. I love cats. I I I love cats. I I I I I like books. I I I I love cats. I I I I I I love cats. I I I I I hate dogs. I I I I hate dogs. I I I I I I hate dogs. I I I I love cats. I like books. I I I I I I I I love cats. I I I I I I I I I I I I I I I I I am a text generator. I I love cats. I I I I I love cats. I I I I I I hate dogs. I hate dogs. I love cats. I I hate dogs. I I love love cats. I love cats. I love cats. I am a text generator. I I love cats. I love cats. I I I I I love cats. I I I I I I I I hate dogs. I hate dogs. I I I I I love socks. I I I love cats. I I I I love love cats. I I I I love love love love. I I I I I love love. I I love cats. I love love love cats. I I I love cats. I I I I love cats. I I I I love love cats. I hate dogs. I I I I I I I I I I I I I I I I I hate dogs. I I I I I I I I I I I I I I love love cats. I I like books. I I love cats. I I am a text generator. I love cats. I I I I hate dogs. I hate dogs. I love love socks. I love cats. I I love love love love love. I love cats. I I love socks. I I I I I I love cats. I I I am a text generator. I I I I love love love love. I I I I I love cats. I like books. I I I hate dogs. I I I I I love socks. I I love socks. I I I I I hate dogs. I I I 

** Test #3: Checking requested generator word count...Your generator produced 500 words. 
** Test #4: Testing specific word counts...'I' appeared 316 times. 
** Test #5: Checking that every word is used at least once...Done. 
** Test 6: Seeing if last word is always followed by first word...Done. 
** Test #7: Requesting zero words...Generator generated: I . 
** Test #8: Running train() on a generator that has already been trained...The word 'I' appears 0 times. 
** Test #9: Testing retrain()...Text generated:                     . 
Tests complete. Make sure everything looks right.
